…
### Which cancer type has the lowest AUC values to the compound “vorinostat”?

``` r
min_vorinostat_AUC_by_cancer <- all_data %>% 
  filter(cpd_name == "vorinostat") %>% 
  drop_na(cancer_type) %>%
  group_by(cancer_type) %>% 
  summarize(min_AUC_vorinostat = min(area_under_curve))

min_vorinostat_AUC_by_cancer
```

    ## # A tibble: 23 x 2
    ##    cancer_type                        min_AUC_vorinostat
    ##    <chr>                                           <dbl>
    ##  1 autonomic ganglia                                8.16
    ##  2 biliary tract                                    6.74
    ##  3 bone                                            10.1 
    ##  4 breast                                           9.27
    ##  5 central nervous system                           9.71
    ##  6 endometrium                                     10.3 
    ##  7 haematopoietic and lymphoid tissue               7.94
    ##  8 kidney                                          11.0 
    ##  9 large intestine                                 10.6 
    ## 10 liver                                           10.0 
    ## # … with 13 more rows
…
