…
CTRP_df_q1 <- CTRP_df %>%
  select(cpd_name, cancer_type, area_under_curve) %>%
  filter(cpd_name == "vorinostat") %>%
  group_by(cancer_type) %>%
  summarize(AUC = mean(area_under_curve)) %>%
  arrange(AUC)
```

    ## `summarise()` ungrouping output (override with `.groups` argument)

``` r
CTRP_df_q1
```

    ## # A tibble: 22 x 2
    ##    cancer_type                          AUC
    ##    <chr>                              <dbl>
    ##  1 thyroid                             10.7
    ##  2 kidney                              11.5
    ##  3 autonomic_ganglia                   11.7
    ##  4 stomach                             11.8
    ##  5 haematopoietic_and_lymphoid_tissue  11.9
    ##  6 breast                              12.1
    ##  7 bone                                12.2
    ##  8 soft_tissue                         12.3
    ##  9 liver                               12.4
    ## 10 pleura                              12.4
    ## # ... with 12 more rows
…
    ## `summarise()` ungrouping output (override with `.groups` argument)

``` r
CTRP_df_q2
```

    ## # A tibble: 45 x 2
    ##    cpd_name                               AUC
    ##    <chr>                                <dbl>
    ##  1 N9-isopropylolomoucine              0.0835
    ##  2 serdemetan:SCH-529074 (1:1 mol/mol) 0.111 
    ##  3 leptomycin B                        1.17  
    ##  4 topotecan                           4.05  
    ##  5 brefeldin A                         4.50  
    ##  6 CR-1-31B                            5.82  
    ##  7 KX2-391                             6.29  
    ##  8 CAY10618                            6.42  
    ##  9 obatoclax                           6.71  
    ## 10 SN-38                               6.89  
    ## # ... with 35 more rows
…
