…
    ## `summarise()` ungrouping output (override with `.groups` argument)

``` r
#visualizing the data 
CTRP_VOR
```

    ## # A tibble: 24 x 2
    ##    cancer_type                          AUC
    ##    <chr>                              <dbl>
    ##  1 haematopoietic_and_lymphoid_tissue  10.7
    ##  2 autonomic_ganglia                   10.7
    ##  3 biliary_tract                       11.3
    ##  4 prostate                            11.5
    ##  5 breast                              11.9
    ##  6 soft_tissue                         12.0
    ##  7 large_intestine                     12.0
    ##  8 lung                                12.1
    ##  9 urinary_tract                       12.1
    ## 10 thyroid                             12.2
    ## # ... with 14 more rows
…
